{
"code": "footer_categories"
,
"descrip": ""
,
"items": [
{
"active": 1
,
"disp_order": 76
,
"id": 76
,
"items": ""
,
"link": "\u003Ca href\u003D\"https:\/\/genesis.mivamerchantdev.com\/category\/category-1.html\" target\u003D\"_self\"\u003ECategory 1\u003C\/a\u003E"
,
"link_dest": "category_01"
,
"link_targ": "_self"
,
"link_type": "C"
,
"name": "Category 1"
,
"url": "https:\/\/genesis.mivamerchantdev.com\/category\/category-1.html"
}
,
{
"active": 1
,
"disp_order": 77
,
"id": 77
,
"items": [
{
"active": 1
,
"disp_order": 78
,
"id": 78
,
"items": ""
,
"link": "\u003Ca href\u003D\"https:\/\/genesis.mivamerchantdev.com\/category\/sub-category-1.html\" target\u003D\"_self\"\u003ESubcategory 1\u003C\/a\u003E"
,
"link_dest": "Sub-cat-1"
,
"link_targ": "_self"
,
"link_type": "C"
,
"name": "Subcategory 1"
,
"url": "https:\/\/genesis.mivamerchantdev.com\/category\/sub-category-1.html"
}
,
{
"active": 1
,
"disp_order": 79
,
"id": 79
,
"items": ""
,
"link": "\u003Ca href\u003D\"https:\/\/genesis.mivamerchantdev.com\/category\/sub-category-2.html\" target\u003D\"_self\"\u003ESubcategory 2\u003C\/a\u003E"
,
"link_dest": "Sub-cat-2"
,
"link_targ": "_self"
,
"link_type": "C"
,
"name": "Subcategory 2"
,
"url": "https:\/\/genesis.mivamerchantdev.com\/category\/sub-category-2.html"
}
]
,
"link": "\u003Ca href\u003D\"https:\/\/genesis.mivamerchantdev.com\/category\/category-2.html\" target\u003D\"_self\"\u003ECategory 2\u003C\/a\u003E"
,
"link_dest": "category_02"
,
"link_targ": "_self"
,
"link_type": "C"
,
"name": "Category 2"
,
"url": "https:\/\/genesis.mivamerchantdev.com\/category\/category-2.html"
}
,
{
"active": 1
,
"disp_order": 80
,
"id": 80
,
"items": [
{
"active": 1
,
"disp_order": 81
,
"id": 81
,
"items": ""
,
"link": "\u003Ca href\u003D\"https:\/\/genesis.mivamerchantdev.com\/category\/sub-category-3.html\" target\u003D\"_self\"\u003ESubcategory 3\u003C\/a\u003E"
,
"link_dest": "Sub-cat-3"
,
"link_targ": "_self"
,
"link_type": "C"
,
"name": "Subcategory 3"
,
"url": "https:\/\/genesis.mivamerchantdev.com\/category\/sub-category-3.html"
}
,
{
"active": 1
,
"disp_order": 82
,
"id": 82
,
"items": ""
,
"link": "\u003Ca href\u003D\"https:\/\/genesis.mivamerchantdev.com\/category\/sub-category-4.html\" target\u003D\"_self\"\u003ESubcategory 4\u003C\/a\u003E"
,
"link_dest": "Sub-cat-4"
,
"link_targ": "_self"
,
"link_type": "C"
,
"name": "Subcategory 4"
,
"url": "https:\/\/genesis.mivamerchantdev.com\/category\/sub-category-4.html"
}
]
,
"link": "\u003Ca href\u003D\"https:\/\/genesis.mivamerchantdev.com\/category\/category-3.html\" target\u003D\"_self\"\u003ECategory 3\u003C\/a\u003E"
,
"link_dest": "category_03"
,
"link_targ": "_self"
,
"link_type": "C"
,
"name": "Category 3"
,
"url": "https:\/\/genesis.mivamerchantdev.com\/category\/category-3.html"
}
,
{
"active": 1
,
"disp_order": 83
,
"id": 83
,
"items": ""
,
"link": "\u003Ca href\u003D\"https:\/\/genesis.mivamerchantdev.com\/mm5\/merchant.mvc\u003FScreen\u003DCTGY\u0026Category_Code\u003Dcategory_4\" target\u003D\"_self\"\u003ECategory 4\u003C\/a\u003E"
,
"link_dest": "category_4"
,
"link_targ": "_self"
,
"link_type": "C"
,
"name": "Category 4"
,
"url": "https:\/\/genesis.mivamerchantdev.com\/mm5\/merchant.mvc\u003FScreen\u003DCTGY\u0026Category_Code\u003Dcategory_4"
}
,
{
"active": 1
,
"disp_order": 84
,
"id": 84
,
"items": ""
,
"link": "\u003Ca href\u003D\"https:\/\/genesis.mivamerchantdev.com\/category\/sale.html\" target\u003D\"_self\"\u003ESale\u003C\/a\u003E"
,
"link_dest": "sale"
,
"link_targ": "_self"
,
"link_type": "C"
,
"name": "Sale"
,
"url": "https:\/\/genesis.mivamerchantdev.com\/category\/sale.html"
}
,
{
"active": 1
,
"disp_order": 85
,
"id": 85
,
"items": ""
,
"link": "\u003Ca href\u003D\"https:\/\/genesis.mivamerchantdev.com\/category\/featured-products.html\" target\u003D\"_self\"\u003EFeatured Products\u003C\/a\u003E"
,
"link_dest": "featured"
,
"link_targ": "_self"
,
"link_type": "C"
,
"name": "Featured Products"
,
"url": "https:\/\/genesis.mivamerchantdev.com\/category\/featured-products.html"
}
]
,
"layout": "S"
,
"managedtemplateversion": {
"dtstamp": 1579054601
,
"id": 2320
,
"immutable": 0
,
"notes": "axe moderate fix: Heading levels should only increase by one"
,
"settings": ""
,
"source": ""
,
"templ_id": 503
,
"user_id": 0
}
,
"name": "Global Footer Category Menu"
,
"original_code": "footer_categories"
,
"templ_id": 503
}
