{
"code": "secondary_navigation"
,
"descrip": ""
,
"items": ""
,
"layout": "H"
,
"managedtemplateversion": {
"dtstamp": 1612458817
,
"id": 4715
,
"immutable": 0
,
"notes": "ReadyTheme Navigation Set \u0027secondary_navigation\u0027 updated"
,
"settings": ""
,
"source": ""
,
"templ_id": 708
,
"user_id": 3
}
,
"name": "Secondary Navigation"
,
"original_code": "secondary_navigation"
,
"templ_id": 708
}
