{
"code": "static_navigation"
,
"descrip": "This is the side navigation for all static content pages."
,
"items": [
{
"active": 1
,
"disp_order": 95
,
"id": 95
,
"items": ""
,
"link": "\u003Ca href\u003D\"https:\/\/genesis.mivamerchantdev.com\/page\/about-us.html\" target\u003D\"_self\"\u003EAbout Us\u003C\/a\u003E"
,
"link_dest": "ABUS"
,
"link_targ": "_self"
,
"link_type": "G"
,
"name": "About Us"
,
"url": "https:\/\/genesis.mivamerchantdev.com\/page\/about-us.html"
}
,
{
"active": 1
,
"disp_order": 96
,
"id": 96
,
"items": [
{
"active": 1
,
"disp_order": 97
,
"id": 97
,
"items": ""
,
"link": "\u003Ca href\u003D\"https:\/\/genesis.mivamerchantdev.com\/category\/sub-category-1.html\" target\u003D\"_self\"\u003ESubcategory 1\u003C\/a\u003E"
,
"link_dest": "Sub-cat-1"
,
"link_targ": "_self"
,
"link_type": "C"
,
"name": "Subcategory 1"
,
"url": "https:\/\/genesis.mivamerchantdev.com\/category\/sub-category-1.html"
}
,
{
"active": 1
,
"disp_order": 98
,
"id": 98
,
"items": ""
,
"link": "\u003Ca href\u003D\"https:\/\/genesis.mivamerchantdev.com\/category\/sub-category-2.html\" target\u003D\"_self\"\u003ESubcategory 2\u003C\/a\u003E"
,
"link_dest": "Sub-cat-2"
,
"link_targ": "_self"
,
"link_type": "C"
,
"name": "Subcategory 2"
,
"url": "https:\/\/genesis.mivamerchantdev.com\/category\/sub-category-2.html"
}
]
,
"link": "\u003Ca href\u003D\"https:\/\/genesis.mivamerchantdev.com\/page\/contact-us.html\" target\u003D\"_self\"\u003EContact Us\u003C\/a\u003E"
,
"link_dest": "CTUS"
,
"link_targ": "_self"
,
"link_type": "G"
,
"name": "Contact Us"
,
"url": "https:\/\/genesis.mivamerchantdev.com\/page\/contact-us.html"
}
,
{
"active": 1
,
"disp_order": 99
,
"id": 99
,
"items": [
{
"active": 1
,
"disp_order": 100
,
"id": 100
,
"items": ""
,
"link": "\u003Ca href\u003D\"https:\/\/genesis.mivamerchantdev.com\/category\/sub-category-3.html\" target\u003D\"_self\"\u003ESubcategory 3\u003C\/a\u003E"
,
"link_dest": "Sub-cat-3"
,
"link_targ": "_self"
,
"link_type": "C"
,
"name": "Subcategory 3"
,
"url": "https:\/\/genesis.mivamerchantdev.com\/category\/sub-category-3.html"
}
,
{
"active": 1
,
"disp_order": 101
,
"id": 101
,
"items": ""
,
"link": "\u003Ca href\u003D\"https:\/\/genesis.mivamerchantdev.com\/category\/sub-category-4.html\" target\u003D\"_self\"\u003ESubcategory 4\u003C\/a\u003E"
,
"link_dest": "Sub-cat-4"
,
"link_targ": "_self"
,
"link_type": "C"
,
"name": "Subcategory 4"
,
"url": "https:\/\/genesis.mivamerchantdev.com\/category\/sub-category-4.html"
}
]
,
"link": "\u003Ca href\u003D\"https:\/\/genesis.mivamerchantdev.com\/page\/frequently-asked-questions.html\" target\u003D\"_self\"\u003EFrequently Asked Questions\u003C\/a\u003E"
,
"link_dest": "FAQS"
,
"link_targ": "_self"
,
"link_type": "G"
,
"name": "Frequently Asked Questions"
,
"url": "https:\/\/genesis.mivamerchantdev.com\/page\/frequently-asked-questions.html"
}
,
{
"active": 1
,
"disp_order": 102
,
"id": 102
,
"items": ""
,
"link": "\u003Ca href\u003D\"https:\/\/genesis.mivamerchantdev.com\/page\/privacy-policy.html\" target\u003D\"_self\"\u003EPrivacy Policy\u003C\/a\u003E"
,
"link_dest": "PRPO"
,
"link_targ": "_self"
,
"link_type": "G"
,
"name": "Privacy Policy"
,
"url": "https:\/\/genesis.mivamerchantdev.com\/page\/privacy-policy.html"
}
,
{
"active": 1
,
"disp_order": 103
,
"id": 103
,
"items": ""
,
"link": "\u003Ca href\u003D\"https:\/\/genesis.mivamerchantdev.com\/page\/shipping-and-return-policy.html\" target\u003D\"_self\"\u003EShipping \u0026amp\u003B Return Policy\u003C\/a\u003E"
,
"link_dest": "SARP"
,
"link_targ": "_self"
,
"link_type": "G"
,
"name": "Shipping \u0026 Return Policy"
,
"url": "https:\/\/genesis.mivamerchantdev.com\/page\/shipping-and-return-policy.html"
}
]
,
"layout": "S"
,
"managedtemplateversion": {
"dtstamp": 1607121358
,
"id": 4446
,
"immutable": 0
,
"notes": "ReadyTheme Navigation Set \u0027static_navigation\u0027 updated"
,
"settings": ""
,
"source": ""
,
"templ_id": 505
,
"user_id": 3
}
,
"name": "Static Page Navigation"
,
"original_code": "static_navigation"
,
"templ_id": 505
}
