{
"dtstamp": 1610631339
,
"id": 4531
,
"immutable": 0
,
"notes": "Page ACED updated"
,
"settings": {
"template_filename": "aced-footer.mvc"
,
"template_id": 109
}
,
"source": ""
,
"templ_id": 109
,
"user_id": 3
}
