{
"dtstamp": 1610631339
,
"id": 4530
,
"immutable": 0
,
"notes": "Page ACED updated"
,
"settings": {
"template_filename": "aced-header.mvc"
,
"template_id": 108
}
,
"source": ""
,
"templ_id": 108
,
"user_id": 3
}
