{
"dtstamp": 1600109519
,
"id": 4166
,
"immutable": 0
,
"notes": "ssoule matching develop"
,
"settings": {
"template_filename": "acln-content.mvc"
,
"template_id": 580
}
,
"source": ""
,
"templ_id": 580
,
"user_id": 0
}
