{
"dtstamp": 1605183830
,
"id": 4329
,
"immutable": 1
,
"notes": "Original"
,
"settings": {
"hdft": {
"footer": {
"template_filename": "afrt-footer.mvc"
,
"template_id": 680
}
,
"header": {
"template_filename": "afrt-header.mvc"
,
"template_id": 679
}
}
,
"seo_settings": {
"cat_lit": "category"
,
"cat_lit_choice": "category"
,
"plit_in_bc": 0
,
"prod_lit": "product"
,
"prod_lit_choice": "product"
,
"sc_always": 0
,
"sf_active": 0
,
"sl_active": 0
,
"sm_active": 1
,
"suffix": "html"
,
"suffix_choice": "html"
,
"surlprefix": "https:\/\/genesis.mivamerchantdev.com\/"
,
"url_delim": "\/"
,
"urlprefix": "http:\/\/genesis.mivamerchantdev.com\/"
}
}
,
"source": ""
,
"templ_id": 678
,
"user_id": 0
}
