{
"dtstamp": 1605544878
,
"id": 4336
,
"immutable": 0
,
"notes": "Page BASK updated"
,
"settings": {
"template_filename": "bask-header.mvc"
,
"template_id": 74
}
,
"source": ""
,
"templ_id": 74
,
"user_id": 3
}
