{
"dtstamp": 1556645331
,
"id": 560
,
"immutable": 0
,
"notes": "Updated by Framework \u0027shadows\u0027 on 04\/30\/2019 10:28:51 PDT"
,
"settings": {
"template_filename": "cpca-mivapay_css.mvc"
,
"template_id": 268
}
,
"source": ""
,
"templ_id": 268
,
"user_id": 0
}
