{
"dtstamp": 1610631568
,
"id": 4542
,
"immutable": 0
,
"notes": "Page CPCD updated"
,
"settings": {
"mode": "paymentcard_list"
,
"template_filename": "cpcd-paymentcards.mvc"
,
"template_id": 263
}
,
"source": ""
,
"templ_id": 263
,
"user_id": 3
}
