{
"dtstamp": 1576807700
,
"id": 1925
,
"immutable": 0
,
"notes": "Template Search and Replace: Executed by support_ssoule on 12\/19\/2019 18:08:19 PST"
,
"settings": {
"content": {
"template_filename": "cpce-content.mvc"
,
"template_id": 563
}
,
"hdft": {
"footer": {
"template_filename": "cpce-footer.mvc"
,
"template_id": 271
}
,
"header": {
"template_filename": "cpce-header.mvc"
,
"template_id": 270
}
}
,
"mivapay": {
"paymentcardfields": {
"cardtype_prompt": "Card Type:"
,
"cardtype_prompt_hidden": 0
,
"mode": "paymentcard_edit"
,
"storecard_checkedbydefault": 0
,
"storecard_prompt": "Store This Card For Future Use"
,
"template_filename": "cpce-mivapay.mvc"
,
"template_id": 272
}
,
"paymentcardfields_css": {
"template_filename": "cpce-mivapay_css.mvc"
,
"template_id": 273
}
}
,
"seo_settings": {
"cat_lit": "category"
,
"cat_lit_choice": "category"
,
"plit_in_bc": 0
,
"prod_lit": "product"
,
"prod_lit_choice": "product"
,
"sc_always": 0
,
"sf_active": 0
,
"sl_active": 0
,
"sm_active": 1
,
"suffix": "html"
,
"suffix_choice": "html"
,
"url_delim": "\/"
,
"urlprefix": "http:\/\/dts3770.mivamerchantdev.com\/"
}
}
,
"source": ""
,
"templ_id": 269
,
"user_id": 0
}
