{
"dtstamp": 1610631989
,
"id": 4576
,
"immutable": 0
,
"notes": "Page CSTR updated"
,
"settings": {
"content": {
"template_filename": "cstr-content.mvc"
,
"template_id": 560
}
,
"hdft": {
"footer": {
"template_filename": "cstr-footer.mvc"
,
"template_id": 276
}
,
"header": {
"template_filename": "cstr-header.mvc"
,
"template_id": 275
}
}
,
"seo_settings": {
"cat_lit": "category"
,
"cat_lit_choice": "category"
,
"plit_in_bc": 0
,
"prod_lit": "product"
,
"prod_lit_choice": "product"
,
"sc_always": 0
,
"sf_active": 0
,
"sl_active": 0
,
"sm_active": 1
,
"suffix": "html"
,
"suffix_choice": "html"
,
"url_delim": "\/"
,
"urlprefix": "http:\/\/dts3770.mivamerchantdev.com\/"
}
}
,
"source": ""
,
"templ_id": 274
,
"user_id": 3
}
