{
"dtstamp": 1576807700
,
"id": 1921
,
"immutable": 0
,
"notes": "Template Search and Replace: Executed by support_ssoule on 12\/19\/2019 18:08:19 PST"
,
"settings": {
"content": {
"template_filename": "csub-content.mvc"
,
"template_id": 559
}
,
"hdft": {
"footer": {
"template_filename": "csub-footer.mvc"
,
"template_id": 251
}
,
"header": {
"template_filename": "csub-header.mvc"
,
"template_id": 250
}
}
,
"seo_settings": {
"cat_lit": "category"
,
"cat_lit_choice": "category"
,
"plit_in_bc": 0
,
"prod_lit": "product"
,
"prod_lit_choice": "product"
,
"sc_always": 0
,
"sf_active": 0
,
"sl_active": 0
,
"sm_active": 1
,
"suffix": "html"
,
"suffix_choice": "html"
,
"url_delim": "\/"
,
"urlprefix": "http:\/\/dts3770.mivamerchantdev.com\/"
}
,
"subscriptions": {
"additionalprice": "base"
,
"advanced": 1
,
"b_height": 360
,
"b_width": 360
,
"constrain": "B"
,
"default_sort": "id_desc"
,
"display": {
"discounts": 1
,
"handling": 1
,
"salestax": 1
,
"shipping": 1
}
,
"field_cncldate": 0
,
"field_code": 1
,
"field_firstdate": 1
,
"field_lastdate": 1
,
"field_name": 1
,
"field_nextdate": 1
,
"field_options": 1
,
"field_paymentmethod": 1
,
"field_price": 1
,
"field_quantity": 1
,
"field_shippingaddress": 1
,
"field_termproc": 0
,
"field_termrem": 1
,
"hide_cancelled": "A"
,
"hide_cancelled_days": 14
,
"imagetypes": [
"main"
]
,
"items_per_page_filter": 1
,
"lineitemdiscounts": 1
,
"page_disp_count": 3
,
"per_page": 12
,
"price": "sale"
,
"reverse_default_disp_order": 0
,
"sort_by": {
"code": 0
,
"firstdate": 0
,
"lastdate": 0
,
"name": 0
,
"nextdate": 0
,
"payment": 0
,
"price": 0
,
"shipping": 0
,
"switch": 0
,
"termproc": 0
,
"termrem": 0
,
"total": 0
}
,
"template_filename": "csub-subscriptions.mvc"
,
"template_id": 252
}
}
,
"source": ""
,
"templ_id": 249
,
"user_id": 0
}
