{
"dtstamp": 1610633719
,
"id": 4592
,
"immutable": 0
,
"notes": "Page Update"
,
"settings": {
"toe_subscriptions": {
"advanced": 1
,
"b_height": 200
,
"b_width": 200
,
"constrain": "B"
,
"display": {
"discounts": 1
,
"handling": 1
,
"salestax": 1
,
"shipping": 1
}
,
"groups": 1
,
"image": "main"
,
"imagetypes": [
"main"
]
,
"lineitemcoupons": 0
,
"lineitemdiscounts": 0
,
"payments": 1
,
"price": "base"
,
"template_filename": "email_subscription_created-toe_subscriptions.mvc"
,
"template_id": 368
}
}
,
"source": ""
,
"templ_id": 367
,
"user_id": 3
}
