{
"dtstamp": 1600110530
,
"id": 4194
,
"immutable": 0
,
"notes": "ssoule matching develop"
,
"settings": {
"template_filename": "gftl-content.mvc"
,
"template_id": 554
}
,
"source": ""
,
"templ_id": 554
,
"user_id": 0
}
