{
"dtstamp": 1587138608
,
"id": 3074
,
"immutable": 0
,
"notes": ""
,
"settings": {
"prevent_template_auto_update": 1
,
"template_filename": "invc-order_customer.mvc"
,
"template_id": 175
}
,
"source": ""
,
"templ_id": 175
,
"user_id": 0
}
