{
"dtstamp": 1577384788
,
"id": 2220
,
"immutable": 0
,
"notes": "PS-11878 \u007C Section tags to divs \u007C JB-122619"
,
"settings": {
"template_filename": "mntn-content.mvc"
,
"template_id": 551
}
,
"source": ""
,
"templ_id": 551
,
"user_id": 0
}
