{
"dtstamp": 1592962729
,
"id": 3979
,
"immutable": 0
,
"notes": "Template Search and Replace: Executed by support_ssoule on 06\/23\/2020 18:38:49 PDT"
,
"settings": {
"editable": 0
,
"mode": "order"
,
"prevent_template_auto_update": 1
,
"template_filename": "opay-customer.mvc"
,
"template_id": 165
}
,
"source": ""
,
"templ_id": 165
,
"user_id": 0
}
