{
"dtstamp": 1600110808
,
"id": 4203
,
"immutable": 0
,
"notes": "ssoule matching develop"
,
"settings": {
"template_filename": "ords-content.mvc"
,
"template_id": 543
}
,
"source": ""
,
"templ_id": 543
,
"user_id": 0
}
