{
"dtstamp": 1605544909
,
"id": 4343
,
"immutable": 0
,
"notes": "Page OSEL updated"
,
"settings": {
"advanced": 1
,
"applycoupons": 0
,
"b_height": 100
,
"b_width": 100
,
"button_wish": 0
,
"constrain": "B"
,
"discounts": 1
,
"editable": 0
,
"groups": 1
,
"handling": 0
,
"imagetypes": [
"main"
]
,
"lineitemcoupons": 0
,
"lineitemdiscounts": 1
,
"lineitemprice": "base"
,
"redeemgiftcerts": 1
,
"salestax": 0
,
"shipping": 0
,
"splitpayments": 1
,
"template_filename": "osel-basket.mvc"
,
"template_id": 161
}
,
"source": ""
,
"templ_id": 161
,
"user_id": 3
}
