{
"dtstamp": 1610633968
,
"id": 4608
,
"immutable": 0
,
"notes": "Page OUS1 updated"
,
"settings": {
"template_filename": "ous1-product_attributes.mvc"
,
"template_id": 153
}
,
"source": ""
,
"templ_id": 153
,
"user_id": 3
}
