{
"dtstamp": 1586980712
,
"id": 2986
,
"immutable": 0
,
"notes": "Template Search and Replace: Executed by support_ssoule on 04\/15\/2020 12:58:31 PDT"
,
"settings": {
"template_filename": "plmt-content.mvc"
,
"template_id": 536
}
,
"source": ""
,
"templ_id": 536
,
"user_id": 0
}
