{
"dtstamp": 1576807700
,
"id": 1892
,
"immutable": 0
,
"notes": "Template Search and Replace: Executed by support_ssoule on 12\/19\/2019 18:08:19 PST"
,
"settings": {
"content": {
"template_filename": "plmt-content.mvc"
,
"template_id": 536
}
,
"hdft": {
"footer": {
"template_filename": "plmt-footer.mvc"
,
"template_id": 142
}
,
"header": {
"template_filename": "plmt-header.mvc"
,
"template_id": 141
}
}
,
"seo_settings": {
"cat_lit": "category"
,
"cat_lit_choice": "category"
,
"plit_in_bc": 0
,
"prod_lit": "product"
,
"prod_lit_choice": "product"
,
"sc_always": 0
,
"sf_active": 0
,
"sl_active": 0
,
"sm_active": 1
,
"suffix": "html"
,
"suffix_choice": "html"
,
"url_delim": "\/"
,
"urlprefix": "http:\/\/dts3770.mivamerchantdev.com\/"
}
}
,
"source": ""
,
"templ_id": 140
,
"user_id": 0
}
