{
"dtstamp": 1556644877
,
"id": 417
,
"immutable": 1
,
"notes": "Original"
,
"settings": {
"inline_css": {
"advanced": 0
,
"template_filename": "shipment_picklist-inline_css.mvc"
,
"template_id": 417
}
}
,
"source": ""
,
"templ_id": 416
,
"user_id": 0
}
