{
"dtstamp": 1606246859
,
"id": 4372
,
"immutable": 0
,
"notes": "Page WISH updated"
,
"settings": {
"mode": "tokens_only_nodisplay"
,
"template_filename": "wish-wishlist.mvc"
,
"template_id": 217
}
,
"source": ""
,
"templ_id": 217
,
"user_id": 13
}
