{
"dtstamp": 1576807700
,
"id": 1912
,
"immutable": 0
,
"notes": "Template Search and Replace: Executed by support_ssoule on 12\/19\/2019 18:08:19 PST"
,
"settings": {
"content": {
"template_filename": "wish-content.mvc"
,
"template_id": 528
}
,
"hdft": {
"footer": {
"template_filename": "wish-footer.mvc"
,
"template_id": 216
}
,
"header": {
"template_filename": "wish-header.mvc"
,
"template_id": 215
}
}
,
"seo_settings": {
"cat_lit": "category"
,
"cat_lit_choice": "category"
,
"plit_in_bc": 0
,
"prod_lit": "product"
,
"prod_lit_choice": "product"
,
"sc_always": 0
,
"sf_active": 0
,
"sl_active": 0
,
"sm_active": 1
,
"suffix": "html"
,
"suffix_choice": "html"
,
"url_delim": "\/"
,
"urlprefix": "http:\/\/dts3770.mivamerchantdev.com\/"
}
,
"wishlist": {
"mode": "tokens_only_nodisplay"
,
"template_filename": "wish-wishlist.mvc"
,
"template_id": 217
}
,
"wishlistitems": {
"additionalprice": "base"
,
"advanced": 1
,
"b_height": 100
,
"b_width": 100
,
"button_add": 1
,
"constrain": "B"
,
"default_sort": "id_desc"
,
"displaydiscounts": 0
,
"field_code": 1
,
"field_dtadded": 1
,
"field_name": 1
,
"field_notes": 1
,
"field_options": 1
,
"field_price": 1
,
"field_quantity": 1
,
"imagetypes": [
"main"
]
,
"invmsg": "N"
,
"items_per_page_filter": 1
,
"page_disp_count": 0
,
"per_page": 0
,
"predictdiscounts": 1
,
"price": "sale"
,
"reverse_default_disp_order": 0
,
"sort_by": {
"code": 0
,
"dtadded": 0
,
"name": 0
,
"price": 0
,
"switch": 0
}
,
"template_filename": "wish-wishlistitems.mvc"
,
"template_id": 218
}
}
,
"source": ""
,
"templ_id": 214
,
"user_id": 0
}
