{
"active": 1
,
"code": "customer_account_fields"
,
"css_class": "customer-account-fields"
,
"css_id": ""
,
"descrip": "Shipping and billing fields for customer account pages \u0028ex: ACAD, ACED, etc\u0029"
,
"managedtemplateversion": {
"dtstamp": 1610634411
,
"id": 4629
,
"immutable": 0
,
"notes": "ReadyTheme Content Section \u0027customer_account_fields\u0027 updated"
,
"settings": ""
,
"source": ""
,
"templ_id": 625
,
"user_id": 3
}
,
"name": "Customer Account Fields"
,
"original_code": "customer_account_fields"
,
"templ_id": 625
,
"wrap_div": 1
}
