{
"active": 1
,
"code": "sarp_content"
,
"css_class": ""
,
"css_id": ""
,
"descrip": ""
,
"managedtemplateversion": {
"dtstamp": 1571870657
,
"id": 693
,
"immutable": 1
,
"notes": "Original"
,
"settings": ""
,
"source": ""
,
"templ_id": 497
,
"user_id": 0
}
,
"name": "Shipping \u0026 Return Policy Page Content"
,
"original_code": "sarp_content"
,
"templ_id": 497
,
"wrap_div": 1
}
