{
"active": 1
,
"code": "storefront_about_us"
,
"css_class": ""
,
"css_id": ""
,
"descrip": "This is a little blurb about your company or store."
,
"managedtemplateversion": {
"dtstamp": 1589909452
,
"id": 3495
,
"immutable": 0
,
"notes": ""
,
"settings": ""
,
"source": ""
,
"templ_id": 487
,
"user_id": 0
}
,
"name": "Storefront: About Us"
,
"original_code": "storefront_about_us"
,
"templ_id": 487
,
"wrap_div": 1
}
